module gitlab.com/ravelsamal/2torial/back-end/media

go 1.21.3

require (
	github.com/aws/aws-sdk-go-v2 v1.31.0
	github.com/aws/aws-sdk-go-v2/config v1.27.36
	github.com/aws/aws-sdk-go-v2/service/sqs v1.35.0
	github.com/jackc/pgx/v5 v5.4.3
	github.com/rabbitmq/amqp091-go v1.9.0
)

require (
	github.com/aws/aws-sdk-go-v2/aws/protocol/eventstream v1.6.5 // indirect
	github.com/aws/aws-sdk-go-v2/credentials v1.17.34 // indirect
	github.com/aws/aws-sdk-go-v2/feature/ec2/imds v1.16.14 // indirect
	github.com/aws/aws-sdk-go-v2/internal/configsources v1.3.18 // indirect
	github.com/aws/aws-sdk-go-v2/internal/endpoints/v2 v2.6.18 // indirect
	github.com/aws/aws-sdk-go-v2/internal/ini v1.8.1 // indirect
	github.com/aws/aws-sdk-go-v2/internal/v4a v1.3.18 // indirect
	github.com/aws/aws-sdk-go-v2/service/internal/accept-encoding v1.11.5 // indirect
	github.com/aws/aws-sdk-go-v2/service/internal/checksum v1.3.20 // indirect
	github.com/aws/aws-sdk-go-v2/service/internal/presigned-url v1.11.20 // indirect
	github.com/aws/aws-sdk-go-v2/service/internal/s3shared v1.17.18 // indirect
	github.com/aws/aws-sdk-go-v2/service/s3 v1.63.0 // indirect
	github.com/aws/aws-sdk-go-v2/service/sso v1.23.0 // indirect
	github.com/aws/aws-sdk-go-v2/service/ssooidc v1.27.0 // indirect
	github.com/aws/aws-sdk-go-v2/service/sts v1.31.0 // indirect
	github.com/aws/smithy-go v1.21.0 // indirect
	github.com/jackc/pgpassfile v1.0.0 // indirect
	github.com/jackc/pgservicefile v0.0.0-20221227161230-091c0ba34f0a // indirect
	github.com/jackc/puddle/v2 v2.2.1 // indirect
	golang.org/x/crypto v0.9.0 // indirect
	golang.org/x/sync v0.1.0 // indirect
	golang.org/x/text v0.9.0 // indirect
)
